<svg width="189" height="215" viewBox="0 0 189 215" fill="none" xmlns="http://www.w3.org/2000/svg">
<path d="M157 69.9816L190.775 89.1105V127.368L157 146.497L123.225 127.368V89.1105L157 69.9816Z" fill="#E1C06B"/>
<path d="M117 136.687L150.775 155.816V194.074L117 213.203L83.225 194.074V155.816L117 136.687Z" fill="#E1C06B"/>
<path d="M39 136.687L72.775 155.816V194.074L39 213.203L5.22501 194.074V155.816L39 136.687Z" fill="#E1C06B"/>
<path d="M78 69.9816L111.775 89.1105V127.368L78 146.497L44.225 127.368V89.1105L78 69.9816Z" fill="#E1C06B"/>
<path d="M197 137.668L230.775 156.797V195.055L197 214.184L163.225 195.055V156.797L197 137.668Z" fill="#E1C06B"/>
<path d="M197 0.33313L230.775 19.4619V57.7196L197 76.8484L163.225 57.7196V19.4619L197 0.33313Z" fill="#E1C06B"/>
</svg>
