<svg width="106" height="197" viewBox="0 0 106 197" fill="none" xmlns="http://www.w3.org/2000/svg">
<path d="M50.5 49L74.3157 62.75V90.25L50.5 104L26.6843 90.25V62.75L50.5 49Z" fill="#6D685A"/>
<path d="M22.5 96L46.3157 109.75V137.25L22.5 151L-1.3157 137.25V109.75L22.5 96Z" fill="#6D685A"/>
<path d="M-8.5 142L15.3157 155.75V183.25L-8.5 197L-32.3157 183.25V155.75L-8.5 142Z" fill="#6D685A"/>
<path d="M-5.5 49L18.3157 62.75V90.25L-5.5 104L-29.3157 90.25V62.75L-5.5 49Z" fill="#6D685A"/>
<path d="M23.5 0L47.3157 13.75V41.25L23.5 55L-0.315699 41.25V13.75L23.5 0Z" fill="#6D685A"/>
<path d="M78.5 0L102.316 13.75V41.25L78.5 55L54.6843 41.25V13.75L78.5 0Z" fill="#6D685A"/>
</svg>
