<svg width="184" height="150" viewBox="0 0 184 150" fill="none" xmlns="http://www.w3.org/2000/svg">
<path d="M156 0L189.775 19.7452V59.2357L156 78.981L122.225 59.2357V19.7452L156 0Z" fill="#E9CB7D"/>
<path d="M117 69L150.775 88.7452V128.236L117 147.981L83.225 128.236V88.7452L117 69Z" fill="#E9CB7D"/>
<path d="M39 69L72.775 88.7452V128.236L39 147.981L5.22501 128.236V88.7452L39 69Z" fill="#E9CB7D"/>
<path d="M78 0L111.775 19.7452V59.2357L78 78.981L44.225 59.2357V19.7452L78 0Z" fill="#E9CB7D"/>
<path d="M197 71L230.775 90.7452V130.236L197 149.981L163.225 130.236V90.7452L197 71Z" fill="#E9CB7D"/>
</svg>
