<svg width="264" height="367" viewBox="0 0 264 367" fill="none" xmlns="http://www.w3.org/2000/svg">
<path d="M34 316L73.8372 339V385L34 408L-5.83717 385V339L34 316Z" fill="#E3E3E1"/>
<path d="M126 316L165.837 339V385L126 408L86.1628 385V339L126 316Z" fill="#E3E3E1"/>
<path d="M218 316L257.837 339V385L218 408L178.163 385V339L218 316Z" fill="#E3E3E1"/>
<path d="M172 236L211.837 259V305L172 328L132.163 305V259L172 236Z" fill="#E3E3E1"/>
<path d="M34 0L73.8372 23V69L34 92L-5.83717 69V23L34 0Z" fill="#E3E3E1"/>
<path d="M80 236L119.837 259V305L80 328L40.1628 305V259L80 236Z" fill="#E3E3E1"/>
<path d="M126 156L165.837 179V225L126 248L86.1628 225V179L126 156Z" fill="#E3E3E1"/>
<path d="M34 156L73.8372 179V225L34 248L-5.83717 225V179L34 156Z" fill="#E3E3E1"/>
<path d="M80 80L119.837 103V149L80 172L40.1628 149V103L80 80Z" fill="#E3E3E1"/>
<path d="M-14 80L25.8372 103V149L-14 172L-53.8372 149V103L-14 80Z" fill="#E3E3E1"/>
<path d="M-14 234L25.8372 257V303L-14 326L-53.8372 303V257L-14 234Z" fill="#E3E3E1"/>
</svg>
