<svg width="184" height="271" viewBox="0 0 184 271" fill="none" xmlns="http://www.w3.org/2000/svg">
<path d="M34 0L77.3013 25V75L34 100L-9.30127 75V25L34 0Z" fill="#E9CB7D"/>
<path d="M34 171L77.3013 196V246L34 271L-9.30127 246V196L34 171Z" fill="#E9CB7D"/>
<path d="M134 171L177.301 196V246L134 271L90.6987 246V196L134 171Z" fill="#E9CB7D"/>
<path d="M84 84L127.301 109V159L84 184L40.6987 159V109L84 84Z" fill="#E9CB7D"/>
<path d="M-15 86L28.3013 111V161L-15 186L-58.3013 161V111L-15 86Z" fill="#E9CB7D"/>
</svg>
