<svg width="487" height="464" viewBox="0 0 487 464" fill="none" xmlns="http://www.w3.org/2000/svg">
<path d="M243.5 0L454.377 116V348L243.5 464L32.6228 348V116L243.5 0Z" fill="#E1C06B"/>
<path d="M243 49L409.277 140.5V323.5L243 415L76.7231 323.5V140.5L243 49Z" fill="#6D685A"/>
</svg>
