<svg width="209" height="209" viewBox="0 0 209 209" fill="none" xmlns="http://www.w3.org/2000/svg">
<path d="M104.5 0L195 52.25V156.75L104.5 209L14.0003 156.75V52.25L104.5 0Z" fill="#E1C06B"/>
</svg>
